…
    #Most commonly observed values for snowfall 
    ny_noaa |>
      count(snow)

    ## # A tibble: 282 × 2
    ##     snow       n
    ##    <int>   <int>
    ##  1   -13       1
    ##  2     0 2008508
    ##  3     3    8790
    ##  4     5    9748
    ##  5     8    9962
    ##  6    10    5106
    ##  7    13   23095
    ##  8    15    3672
    ##  9    18    3226
    ## 10    20    4797
    ## # ℹ 272 more rows
…
